<?xml version="1.0" encoding="utf-8"?>
<!-- Generator: Adobe Illustrator 18.0.0, SVG Export Plug-In . SVG Version: 6.00 Build 0)  -->
<!DOCTYPE svg PUBLIC "-//W3C//DTD SVG 1.1//EN" "http://www.w3.org/Graphics/SVG/1.1/DTD/svg11.dtd">
<svg version="1.1" id="Camada_1" xmlns="http://www.w3.org/2000/svg" xmlns:xlink="http://www.w3.org/1999/xlink" x="0px" y="0px"
	 viewBox="0 0 163.1 163.1" enable-background="new 0 0 163.1 163.1" xml:space="preserve">
<g>
	<g id="Layer_1_1_">
		<g id="Layer_2_3_">
			<circle fill="#4F4F4F" cx="81.1" cy="81.1" r="81.1"/>
		</g>
	</g>
	<g id="Layer_2_2_">
		<rect x="35" y="71.2" fill="#F4F2F2" width="92.3" height="18.6"/>
		
			<rect x="35" y="71.8" transform="matrix(-1.400037e-03 1 -1 -1.400037e-03 162.3818 0.1139)" fill="#F4F2F2" width="92.3" height="18.6"/>
	</g>
</g>
</svg>
