<?xml version="1.0" encoding="utf-8"?>
<!-- Generator: Adobe Illustrator 18.0.0, SVG Export Plug-In . SVG Version: 6.00 Build 0)  -->
<!DOCTYPE svg PUBLIC "-//W3C//DTD SVG 1.1//EN" "http://www.w3.org/Graphics/SVG/1.1/DTD/svg11.dtd">
<svg version="1.1" id="Camada_1" xmlns="http://www.w3.org/2000/svg" xmlns:xlink="http://www.w3.org/1999/xlink" x="0px" y="0px"
	 viewBox="0 0 745.7 240.3" enable-background="new 0 0 745.7 240.3" xml:space="preserve">
<path fill="#4F4F4F" d="M727.4,240.3H18.3C8.2,240.3,0,232,0,222V18.3C0,8.2,8.2,0,18.3,0h709.1c10.1,0,18.3,8.2,18.3,18.3V222
	C745.7,232,737.5,240.3,727.4,240.3z"/>
<circle fill="#FFFFFF" cx="139.7" cy="120.3" r="85.5"/>
<g>
	<radialGradient id="SVGID_1_" cx="139.1953" cy="119.7592" r="91" gradientUnits="userSpaceOnUse">
		<stop  offset="0" style="stop-color:#CCE0F4"/>
		<stop  offset="6.405089e-02" style="stop-color:#C3DCF2"/>
		<stop  offset="0.1706" style="stop-color:#A9D2EE"/>
		<stop  offset="0.3066" style="stop-color:#80C2E7"/>
		<stop  offset="0.4649" style="stop-color:#47ACDE"/>
		<stop  offset="0.5674" style="stop-color:#1E9CD7"/>
		<stop  offset="0.8652" style="stop-color:#0075BE"/>
		<stop  offset="0.9944" style="stop-color:#005B97"/>
	</radialGradient>
	<circle fill="url(#SVGID_1_)" cx="139.2" cy="119.8" r="91"/>
	<g>
		<polygon fill="#FFFFFF" points="119.7,174.4 190.8,103 190.8,174.4 		"/>
		
			<rect x="114.9" y="60.4" transform="matrix(0.7071 0.7071 -0.7071 0.7071 102.1569 -74.2608)" fill="#FFFFFF" width="51.6" height="51.6"/>
		<polygon fill="#FFFFFF" points="88.8,174.9 88.8,138.5 88.8,102 125.3,138.5 		"/>
	</g>
</g>
<g>
	<g>
		<path fill="#FFFFFF" d="M349.9,85.6l-35.6,94.1c-2.6,7-6.1,12.1-10.4,15.2c-4.3,3.1-9.4,4.7-15.3,4.7c-0.9,0-1.9-0.1-3-0.2
			c-1.1-0.1-2.1-0.3-3.2-0.6l-6.6-18.4c1.6,0.7,3.2,1.3,4.8,1.7c1.6,0.4,3.2,0.6,4.7,0.6c3.1,0,5.9-0.7,8.5-2.1
			c2.6-1.4,4.5-4,5.9-7.9l2.7-7.9l-30.6-79.2h21.5l18.2,51l17.1-51H349.9z"/>
		<path fill="#FFFFFF" d="M440.6,125.3c0,5.9-1.1,11.4-3.3,16.5c-2.2,5.1-5.2,9.5-9,13.2c-3.8,3.7-8.3,6.6-13.5,8.8
			c-5.2,2.1-10.7,3.2-16.5,3.2c-5.8,0-11.3-1.1-16.4-3.2s-9.6-5.1-13.4-8.8c-3.8-3.7-6.8-8.2-9-13.2c-2.2-5.1-3.3-10.5-3.3-16.4
			c0-5.8,1.1-11.2,3.4-16.2c2.2-5.1,5.3-9.5,9.1-13.3c3.8-3.8,8.3-6.8,13.4-8.9c5.1-2.1,10.5-3.2,16.3-3.2c5.8,0,11.3,1.1,16.5,3.2
			c5.2,2.1,9.7,5.1,13.5,8.8c3.8,3.7,6.9,8.1,9,13.2C439.5,114,440.6,119.5,440.6,125.3z M420.9,125.3c0-3.4-0.6-6.5-1.8-9.5
			c-1.2-2.9-2.8-5.5-4.8-7.7c-2-2.2-4.4-3.9-7.2-5.1c-2.7-1.2-5.6-1.8-8.7-1.8c-3.1,0-6,0.6-8.7,1.8s-5.1,2.9-7.2,5.1
			c-2,2.2-3.7,4.8-4.8,7.7c-1.2,2.9-1.8,6.1-1.8,9.5c0,3.4,0.6,6.5,1.8,9.5c1.2,2.9,2.8,5.5,4.8,7.7c2,2.2,4.4,3.9,7.2,5.1
			s5.6,1.8,8.7,1.8c3.1,0,6-0.6,8.7-1.8c2.7-1.2,5.1-2.9,7.2-5.1c2-2.2,3.7-4.7,4.8-7.7C420.3,131.9,420.9,128.7,420.9,125.3z"/>
		<path fill="#FFFFFF" d="M529.1,125.3c0,5.6-0.9,10.9-2.8,15.9c-1.9,5-4.5,9.4-7.9,13.2c-3.4,3.8-7.4,6.8-12.1,9
			c-4.7,2.2-9.8,3.4-15.4,3.4c-3.5,0-6.7-0.5-9.8-1.4c-3-1-5.9-2.5-8.5-4.6v4.1H453V51.2h19.9l0.1,38.4c2.3-1.8,5-3.3,8.2-4.4
			c3.2-1.1,6.5-1.6,9.9-1.6c4.8,0,9.5,1.1,14.1,3.2c4.6,2.1,8.6,5.1,12.2,8.8c3.6,3.7,6.4,8.2,8.6,13.2
			C528.1,113.9,529.1,119.4,529.1,125.3z M509.1,125.3c0-3.7-0.5-7-1.7-10c-1.1-3-2.6-5.6-4.6-7.7c-2-2.1-4.3-3.8-7-4.9
			c-2.7-1.1-5.7-1.7-9-1.7c-2.1,0-4.5,0.4-7.3,1.3c-2.8,0.9-5,2-6.9,3.4v38.1c4.3,3.9,9.2,5.9,14.6,5.9c3.1,0,6-0.6,8.7-1.8
			c2.7-1.2,5-2.9,6.9-5c1.9-2.1,3.4-4.7,4.5-7.7C508.6,132.1,509.1,128.9,509.1,125.3z"/>
		<path fill="#FFFFFF" d="M562,71.9h-20.5V51.3H562V71.9z M561.7,164.9h-20V85.6h20V164.9z"/>
		<path fill="#FFFFFF" d="M656,125.3c0,5.6-0.9,10.9-2.8,15.9c-1.9,5-4.5,9.4-7.9,13.2c-3.4,3.8-7.4,6.8-12.1,9
			c-4.7,2.2-9.8,3.4-15.4,3.4c-3.5,0-6.7-0.5-9.8-1.4c-3-1-5.9-2.5-8.5-4.6v4.1h-19.7V51.2h19.9l0.1,38.4c2.3-1.8,5-3.3,8.2-4.4
			c3.2-1.1,6.5-1.6,9.9-1.6c4.8,0,9.5,1.1,14.1,3.2c4.6,2.1,8.6,5.1,12.2,8.8c3.6,3.7,6.4,8.2,8.6,13.2
			C654.9,113.9,656,119.4,656,125.3z M636,125.3c0-3.7-0.5-7-1.7-10c-1.1-3-2.6-5.6-4.6-7.7c-2-2.1-4.3-3.8-7-4.9
			c-2.7-1.1-5.7-1.7-9-1.7c-2.1,0-4.5,0.4-7.3,1.3c-2.8,0.9-5,2-6.9,3.4v38.1c4.3,3.9,9.2,5.9,14.6,5.9c3.1,0,6-0.6,8.7-1.8
			c2.7-1.2,5-2.9,6.9-5c1.9-2.1,3.4-4.7,4.5-7.7C635.4,132.1,636,128.9,636,125.3z"/>
		<path fill="#FFFFFF" d="M689.3,164.9h-21v-21h21V164.9z"/>
	</g>
</g>
</svg>
